stefan

Level 1 of the Dungeon
(0, 0, D:1)
  a kobold corpse
(6, 0, D:1)
  3 stones
(10, 0, D:1)
  a scroll labeled DEPE SKEBIHI
(0, 3, D:1)
  2 stones
(1, 4, D:1)
  a stone

Level 2 of the Dungeon
(0, 0, D:2)
  a short sword
(3, 1, D:2)
  a ring mail
(1, 3, D:2)
  10 gold pieces

Level 4 of the Dungeon
(0, 0, D:4)
  a tomahawk
(-1, 1, D:4)
  a golden potion
(0, 5, D:4)
  13 gold pieces

